@startuml
sprite $rake [16x16/8] {
0000000000000000
0000000jj0000000
0000000jj0000000
0005555jj5555000
000jjeejjeejj000
000jj00jj00jj000
000jj00jj00jj000
0000000000000000
}

|A1|
|A2|
|A3|

|A2|
start

|A2|
fork
|A1|
:Tafel beschriften;
fork again
|A2|
:Etiketten auslegen;
fork again
|A3|
:Türschilder anbringen;
|A2|
end fork

|A2|
fork
|A1|
:Einlass beaufsichten;
fork again
|A2|
:Türen öffnen;
while () is ([Nicht alle Studenten haben Platz gefunden])
  :Bei Platzsuche helfen;
endwhile([Alle Studenten sind am Platz])
fork again
|A3|
:Türen öffnen;
while () is ([Nicht alle Studenten haben Platz gefunden])
  :Bei Platzsuche helfen;
endwhile([Alle Studenten sind am Platz])
|A2|
end fork

|A1|
:Ablauf ansagen;

|A2|
fork
|A1|
:Austeilen beaufsichtigen;
fork again
|A2|
:Klausur austeilen;
fork again
|A3|
:Klausur austeilen;
|A2|
end fork
|A1|
:Beginn verkünden;

|A2|
fork
|A1|
:Klausur beaufsichtigen;
fork again
|A2|
:Ausweise kontrollieren;
fork again
|A3|
:Aufsicht führen;
|A2|
end fork
|A1|
:Ende verkünden;

stop

@enduml
