@startuml
interface List<  E  > <<interface>> {
    + add(e: E): boolean
    + add(index: int, e: E): boolean
    + clear()
}

class ArrayList<  E  >

"List" <|.. "ArrayList":implements-Relation
@enduml