@startuml
skinparam nodesep 70

class iMage

interface Processing

interface SingleImage {
    process(image: Image): Image
}

interface MultiImage {
    process(images: List<Image>): Image
}

class Compression {
    int level
}

class Scaling {
    int width
    int height
}

class Collage

class FindBackground
class Transparency
class GreenScreen

iMage -> Processing
Processing <|- SingleImage
Processing <|- MultiImage
SingleImage <|.. FindBackground
SingleImage <|.. Scaling
SingleImage <|.. Compression
SingleImage <|.. Transparency
MultiImage <|.. GreenScreen
MultiImage <|.. Collage

GreenScreen -[hidden] Collage

GreenScreen --> SingleImage : uses

@enduml