@startuml
skinparam linetype polyline
top to bottom direction
package "Package" {
  package "Subpackage 3" {
  class C4
  class C5
  }  
  package "Subpackage 2" {
    class C3
  }
  class "C7"
  package "Subpackage 1" {
    class C1
    class C2
  }
  hide C7

  C2 .> C3: <<import>>
  C3 .> C4: <<import>>
  C1 <|- C2
  C4 o- C5
}

@enduml